%YAML 1.1
%TAG !u! tag:unity3d.com,2011:
--- !u!1045 &1
EditorBuildSettings:
  m_ObjectHideFlags: 0
  serializedVersion: 2
  m_Scenes:
  - enabled: 1
    path: Assets/Scenes/MenuScene.unity
    guid: 91460b2ad95f462479b353e53591b878
  - enabled: 0
    path: Assets/Scenes/GameScene.unity
    guid: 2cda990e2423bbf4892e6590ba056729
  - enabled: 1
    path: Assets/Scenes/PreGameMenu.unity
    guid: 9c190da3d41dbf945a554451ab2c1019
  - enabled: 1
    path: Assets/Scenes/LevelSelect.unity
    guid: df6139e98ea550f4eaeeec64b5683b25
  - enabled: 1
    path: Assets/Scenes/Level_1.unity
    guid: 5f280bbb5dd1ae245a24f07f1f0b3f27
  - enabled: 1
    path: Assets/Scenes/Level_2.unity
    guid: 8f9c7d3a23ea29b46b3e94f8f523c882
  - enabled: 1
    path: Assets/Scenes/Level_3.unity
    guid: 28abc8216707a524aaf22d75e509b06f
  - enabled: 1
    path: Assets/Scenes/Level_4.unity
    guid: 1c9621f2b6471434bb1fc7f100974fa9
  m_configObjects: {}
